<?xml version="1.0" encoding="UTF-8"?>
<testsuite xmlns:xsi="http://www.w3.org/2001/XMLSchema-instance" xsi:noNamespaceSchemaLocation="https://maven.apache.org/surefire/maven-surefire-plugin/xsd/surefire-test-report-3.0.xsd" version="3.0" name="com.mycompany.lab03.TestLab03" time="0.046" tests="20" errors="0" skipped="0" failures="0">
  <properties>
    <property name="java.specification.version" value="18"/>
    <property name="sun.cpu.isalist" value="amd64"/>
    <property name="sun.jnu.encoding" value="MS874"/>
    <property name="java.class.path" value="D:\SoftDev64\Lab03\target\test-classes;D:\SoftDev64\Lab03\target\classes;C:\Users\User\.m2\repository\org\junit\jupiter\junit-jupiter-api\5.6.0\junit-jupiter-api-5.6.0.jar;C:\Users\User\.m2\repository\org\apiguardian\apiguardian-api\1.1.0\apiguardian-api-1.1.0.jar;C:\Users\User\.m2\repository\org\opentest4j\opentest4j\1.2.0\opentest4j-1.2.0.jar;C:\Users\User\.m2\repository\org\junit\platform\junit-platform-commons\1.6.0\junit-platform-commons-1.6.0.jar;C:\Users\User\.m2\repository\org\junit\jupiter\junit-jupiter-params\5.6.0\junit-jupiter-params-5.6.0.jar;C:\Users\User\.m2\repository\org\junit\jupiter\junit-jupiter-engine\5.6.0\junit-jupiter-engine-5.6.0.jar;C:\Users\User\.m2\repository\org\junit\platform\junit-platform-engine\1.6.0\junit-platform-engine-1.6.0.jar;"/>
    <property name="java.vm.vendor" value="Oracle Corporation"/>
    <property name="sun.arch.data.model" value="64"/>
    <property name="user.variant" value=""/>
    <property name="java.vendor.url" value="https://java.oracle.com/"/>
    <property name="user.timezone" value="Asia/Bangkok"/>
    <property name="os.name" value="Windows 10"/>
    <property name="java.vm.specification.version" value="18"/>
    <property name="user.country" value="TH"/>
    <property name="sun.java.launcher" value="SUN_STANDARD"/>
    <property name="sun.boot.library.path" value="C:\Program Files\Java\jdk-18\bin"/>
    <property name="sun.java.command" value="C:\Users\User\AppData\Local\Temp\surefire15689813154521560694\surefirebooter-20230719165050550_3.jar C:\Users\User\AppData\Local\Temp\surefire15689813154521560694 2566-07-19T16-50-50_462-jvmRun1 surefire-20230719165050550_1tmp surefire_0-20230719165050550_2tmp"/>
    <property name="jdk.debug" value="release"/>
    <property name="test" value="com.mycompany.lab03.TestLab03"/>
    <property name="surefire.test.class.path" value="D:\SoftDev64\Lab03\target\test-classes;D:\SoftDev64\Lab03\target\classes;C:\Users\User\.m2\repository\org\junit\jupiter\junit-jupiter-api\5.6.0\junit-jupiter-api-5.6.0.jar;C:\Users\User\.m2\repository\org\apiguardian\apiguardian-api\1.1.0\apiguardian-api-1.1.0.jar;C:\Users\User\.m2\repository\org\opentest4j\opentest4j\1.2.0\opentest4j-1.2.0.jar;C:\Users\User\.m2\repository\org\junit\platform\junit-platform-commons\1.6.0\junit-platform-commons-1.6.0.jar;C:\Users\User\.m2\repository\org\junit\jupiter\junit-jupiter-params\5.6.0\junit-jupiter-params-5.6.0.jar;C:\Users\User\.m2\repository\org\junit\jupiter\junit-jupiter-engine\5.6.0\junit-jupiter-engine-5.6.0.jar;C:\Users\User\.m2\repository\org\junit\platform\junit-platform-engine\1.6.0\junit-platform-engine-1.6.0.jar;"/>
    <property name="sun.cpu.endian" value="little"/>
    <property name="user.home" value="C:\Users\User"/>
    <property name="user.language" value="th"/>
    <property name="java.specification.vendor" value="Oracle Corporation"/>
    <property name="java.version.date" value="2022-03-22"/>
    <property name="java.home" value="C:\Program Files\Java\jdk-18"/>
    <property name="file.separator" value="\"/>
    <property name="basedir" value="D:\SoftDev64\Lab03"/>
    <property name="java.vm.compressedOopsMode" value="Zero based"/>
    <property name="line.separator" value="&#10;"/>
    <property name="java.vm.specification.vendor" value="Oracle Corporation"/>
    <property name="java.specification.name" value="Java Platform API Specification"/>
    <property name="surefire.real.class.path" value="C:\Users\User\AppData\Local\Temp\surefire15689813154521560694\surefirebooter-20230719165050550_3.jar"/>
    <property name="user.script" value=""/>
    <property name="sun.management.compiler" value="HotSpot 64-Bit Tiered Compilers"/>
    <property name="java.runtime.version" value="18+36-2087"/>
    <property name="user.name" value="User"/>
    <property name="path.separator" value=";"/>
    <property name="os.version" value="10.0"/>
    <property name="java.runtime.name" value="Java(TM) SE Runtime Environment"/>
    <property name="file.encoding" value="UTF-8"/>
    <property name="java.vm.name" value="Java HotSpot(TM) 64-Bit Server VM"/>
    <property name="maven.ext.class.path" value="C:\Program Files\NetBeans-18\netbeans\java\maven-nblib\netbeans-eventspy.jar;C:\Program Files\NetBeans-18\netbeans\java\maven-nblib\netbeans-eventspy.jar"/>
    <property name="localRepository" value="C:\Users\User\.m2\repository"/>
    <property name="java.vendor.url.bug" value="https://bugreport.java.com/bugreport/"/>
    <property name="java.io.tmpdir" value="C:\Users\User\AppData\Local\Temp\"/>
    <property name="java.version" value="18"/>
    <property name="user.dir" value="D:\SoftDev64\Lab03"/>
    <property name="os.arch" value="amd64"/>
    <property name="java.vm.specification.name" value="Java Virtual Machine Specification"/>
    <property name="sun.os.patch.level" value=""/>
    <property name="native.encoding" value="MS874"/>
    <property name="java.library.path" value="C:\Program Files\Java\jdk-18\bin;C:\WINDOWS\Sun\Java\bin;C:\WINDOWS\system32;C:\WINDOWS;C:\Program Files (x86)\Common Files\Oracle\Java\javapath;C:\Program Files\Eclipse Adoptium\jdk-17.0.2.8-hotspot\bin;C:\Program Files\Common Files\Oracle\Java\javapath;C:\WINDOWS\system32;C:\WINDOWS;C:\WINDOWS\System32\Wbem;C:\WINDOWS\System32\WindowsPowerShell\v1.0\;C:\WINDOWS\System32\OpenSSH\;C:\Program Files (x86)\Windows Live\Shared;C:\Program Files\dotnet\;C:\Program Files\Microsoft VS Code\bin;C:\Program Files\Git\cmd;C:\Program Files\nodejs\;C:\TDM-GCC-64\bin;C:\cygwin64\bin;C:\Users\User\AppData\Local\Programs\Python\Python311\Scripts\;C:\Users\User\AppData\Local\Programs\Python\Python311\;C:\Users\User\AppData\Local\Microsoft\WindowsApps;C:\Users\User\AppData\Roaming\npm;."/>
    <property name="java.vm.info" value="mixed mode, sharing"/>
    <property name="java.vendor" value="Oracle Corporation"/>
    <property name="java.vm.version" value="18+36-2087"/>
    <property name="sun.io.unicode.encoding" value="UnicodeLittle"/>
    <property name="java.class.version" value="62.0"/>
  </properties>
  <testcase name="test_CheckWinRow3_ByO_True" classname="com.mycompany.lab03.TestLab03" time="0.015"/>
  <testcase name="test_CheckDraw3_False" classname="com.mycompany.lab03.TestLab03" time="0.001"/>
  <testcase name="test_CheckWinRow2_ByO_True" classname="com.mycompany.lab03.TestLab03" time="0.001"/>
  <testcase name="test_CheckWinRow3_ByX_True" classname="com.mycompany.lab03.TestLab03" time="0.001"/>
  <testcase name="test_CheckWinRow1_ByO_True" classname="com.mycompany.lab03.TestLab03" time="0.001"/>
  <testcase name="test_CheckWinRow2_ByX_True" classname="com.mycompany.lab03.TestLab03" time="0"/>
  <testcase name="test_CheckNO_Player" classname="com.mycompany.lab03.TestLab03" time="0"/>
  <testcase name="test_CheckWinRow1_ByX_True" classname="com.mycompany.lab03.TestLab03" time="0"/>
  <testcase name="test_CheckWinDiagonal2_ByO_True" classname="com.mycompany.lab03.TestLab03" time="0.001"/>
  <testcase name="test_CheckWinDiagonal1_ByO_True" classname="com.mycompany.lab03.TestLab03" time="0.001"/>
  <testcase name="test_CheckWinDiagonal2_ByX_True" classname="com.mycompany.lab03.TestLab03" time="0"/>
  <testcase name="test_CheckWinDiagonal1_ByX_True" classname="com.mycompany.lab03.TestLab03" time="0"/>
  <testcase name="test_CheckWinCol3_ByO_True" classname="com.mycompany.lab03.TestLab03" time="0.001"/>
  <testcase name="test_CheckDraw1_False" classname="com.mycompany.lab03.TestLab03" time="0.001"/>
  <testcase name="test_CheckWinCol2_ByO_True" classname="com.mycompany.lab03.TestLab03" time="0"/>
  <testcase name="test_CheckWinCol3_ByX_True" classname="com.mycompany.lab03.TestLab03" time="0.001"/>
  <testcase name="test_CheckWinCol1_ByO_True" classname="com.mycompany.lab03.TestLab03" time="0.001"/>
  <testcase name="test_CheckWinCol2_ByX_True" classname="com.mycompany.lab03.TestLab03" time="0"/>
  <testcase name="test_CheckWinCol1_ByX_True" classname="com.mycompany.lab03.TestLab03" time="0"/>
  <testcase name="test_CheckDraw2_False" classname="com.mycompany.lab03.TestLab03" time="0"/>
</testsuite>